{
    "rewards": [
        {
            "name": "Feature Me",
            "description": "Your name will be added to the list of !featured users!",
            "cost": 10,
            "duration": "1 weeks",
            "type": "Reward",
            "enabled": true
        },
        {
            "name": "Cookie Monster",
            "description": "Permanently gives you the 'Cookie Monster' badge!",
            "cost": 500,
            "duration": "Permanent",
            "type": "Badge",
            "enabled": true
        }
    ]
}